boothmultiplier_tb.vcd
$date
	Sun Oct  6 16:02:49 2024
$end

$version
	Synopsys VCS version U-2023.03
$end

$timescale
	1ps
$end

$comment Csum: 1 57f7688937ab77c6 $end


$scope module boothmultiplier_tb $end
$var reg 16 ! data_in [15:0] $end
$var reg 1 " clk $end
$var reg 1 # start $end
$var wire 32 $ result [31:0] $end
$var reg 1 % rst $end

$scope module dut $end
$var wire 1 & ldA $end
$var wire 1 ' clrA $end
$var wire 1 ( sftA $end
$var wire 1 ) ldQ $end
$var wire 1 * clrQ $end
$var wire 1 + sftQ $end
$var wire 1 , done $end
$var wire 1 - ldM $end
$var wire 1 . clrFF $end
$var wire 1 / addsub $end
$var wire 1 0 decr $end
$var wire 1 1 ldcount $end
$var wire 16 2 data_in [15:0] $end
$var wire 1 3 start $end
$var wire 1 4 clk $end
$var wire 1 5 qm1 $end
$var wire 1 6 eqz $end
$var wire 32 $ result [31:0] $end
$var wire 5 7 count [4:0] $end
$var wire 16 8 A [15:0] $end
$var wire 16 9 M [15:0] $end
$var wire 16 : Q [15:0] $end
$var wire 16 ; Z [15:0] $end

$scope module Acc_A $end
$var wire 16 ; ld_data [15:0] $end
$var wire 1 4 clk $end
$var wire 1 < rst $end
$var wire 1 & ld $end
$var wire 1 = s_in $end
$var wire 1 ( sft $end
$var reg 16 > data_out [15:0] $end
$upscope $end


$scope module Mlpr_Q $end
$var wire 16 2 ld_data [15:0] $end
$var wire 1 4 clk $end
$var wire 1 * rst $end
$var wire 1 ? ld $end
$var wire 1 @ s_in $end
$var wire 1 + sft $end
$var reg 16 A data_out [15:0] $end
$upscope $end


$scope module d_ff $end
$var wire 1 B data_in $end
$var wire 1 4 clk $end
$var wire 1 . rst $end
$var reg 1 C data_out $end
$upscope $end


$scope module Mlcd_M $end
$var wire 16 2 data_in [15:0] $end
$var wire 1 4 clk $end
$var wire 1 - ld $end
$var reg 16 D data_out [15:0] $end
$upscope $end


$scope module Adsub $end
$var wire 1 / addsub $end
$var wire 16 8 in1 [15:0] $end
$var wire 16 9 in2 [15:0] $end
$var reg 16 E out [15:0] $end
$upscope $end


$scope module counter $end
$var wire 1 0 decr $end
$var wire 1 1 ldcount $end
$var wire 1 4 clk $end
$var reg 5 F count [4:0] $end
$upscope $end


$scope module fsm $end
$var wire 1 4 clk $end
$var wire 1 B q0 $end
$var wire 1 5 qm1 $end
$var wire 1 3 start $end
$var wire 1 6 eqz $end
$var wire 1 & ldA $end
$var wire 1 ' clrA $end
$var wire 1 ( sftA $end
$var wire 1 ) ldQ $end
$var wire 1 * clrQ $end
$var wire 1 + sftQ $end
$var wire 1 - ldM $end
$var wire 1 . clrFF $end
$var wire 1 / addsub $end
$var wire 1 0 decr $end
$var wire 1 1 ldcount $end
$var wire 1 , done $end
$var reg 3 G state [2:0] $end
$upscope $end

$upscope $end

$upscope $end

$enddefinitions $end

#0
$dumpvars
bxxxxxxxxxxxxxxxx :
0"
x.
xC
x0
x,
x3
x6
x1
x5
1%
x#
xB
x/
x)
x-
x'
bxxxxxxxxxxxxxxxx 9
bxxxxxxxxxxxxxxxx D
bxxxxx 7
bxxxxx F
bxxxxxxxxxxxxxxxx !
bxxxxxxxxxxxxxxxx E
bxxx G
bxxxxxxxxxxxxxxxx >
bxxxxxxxxxxxxxxxx A
x=
x<
x@
x?
x&
x(
x*
x+
bxxxxxxxxxxxxxxxxxxxxxxxxxxxxxxxx $
bxxxxxxxxxxxxxxxx 8
bxxxxxxxxxxxxxxxx ;
04
bxxxxxxxxxxxxxxxx 2
$end
xB
#5000
1"
14
b000 G
0&
00
1.
01
0,
1<
0?
0/
0)
0-
1'
0+
0(
1*
#10000
0%
0"
04
#15000
1"
14
b00x G
x.
x1
x<
x-
x'
x*
0C
05
b0000000000000000 >
b0000000000000000 8
0@
0=
b0000000000000000xxxxxxxxxxxxxxxx $
b0000000000000000 A
b0000000000000000 :
0B
b00000000000000000000000000000000 $
#20000
0"
04
1#
13
#25000
1"
14
b000 G
1.
01
1<
0-
1'
1*
#30000
0"
04
b0000000000001010 !
b0000000000001010 2
#35000
1"
14
b001 G
0.
11
0<
1-
0'
0*
#40000
0"
04
b0000000000001101 !
b0000000000001101 2
#45000
1"
14
b010 G
01
1?
1)
0-
b0000000000001101 D
b0000000000001101 9
b10000 F
b10000 7
06
b1111111111110011 E
b1111111111110011 ;
#50000
0"
04
b0000000000000100 !
b0000000000000100 2
#55000
1"
14
b0000000000000100 A
b0000000000000100 :
0B
b00000000000000000000000000000100 $
#56000
b101 G
10
0?
0)
1+
1(
#60000
0"
04
b0000000000000101 !
b0000000000000101 2
#65000
1"
14
b01111 F
b01111 7
b0000000000000010 A
b0000000000000010 :
0B
b00000000000000000000000000000010 $
#70000
0"
04
b0000000000001110 !
b0000000000001110 2
#75000
1"
14
b01110 F
b01110 7
b0000000000000001 A
b0000000000000001 :
1B
b00000000000000000000000000000001 $
#76000
b100 G
1&
00
0+
0(
#80000
0"
04
b0000000000001111 !
b0000000000001111 2
#85000
1"
14
b101 G
0&
10
1+
1(
1C
15
b1111111111110011 >
b1111111111110011 8
1@
1=
b11111111111100110000000000000001 $
b1111111111100110 E
b1111111111100110 ;
#90000
0"
04
b0000000000001000 !
b0000000000001000 2
#95000
1"
14
b01101 F
b01101 7
b1111111111111001 >
b1111111111111001 8
b11111111111110010000000000000001 $
b1000000000000000 A
b1000000000000000 :
0B
b11111111111110011000000000000000 $
b1111111111101100 E
b1111111111101100 ;
#96000
b011 G
1&
00
1/
0+
0(
b0000000000000110 E
b0000000000000110 ;
#100000
0"
04
b0000000000001100 !
b0000000000001100 2
#105000
1"
14
b101 G
0&
10
0/
1+
1(
b1111111111101100 E
b1111111111101100 ;
0C
05
b0000000000000110 >
b0000000000000110 8
0@
0=
b00000000000001101000000000000000 $
b1111111111111001 E
b1111111111111001 ;
#110000
0"
04
b0000000000000011 !
b0000000000000011 2
#115000
1"
14
b01100 F
b01100 7
b0000000000000011 >
b0000000000000011 8
1@
b00000000000000111000000000000000 $
b0100000000000000 A
b0100000000000000 :
0B
b00000000000000110100000000000000 $
b1111111111110110 E
b1111111111110110 ;
#120000
0"
04
b0000000000001110 !
b0000000000001110 2
#125000
1"
14
b01011 F
b01011 7
b0000000000000001 8
b00000000000000010100000000000000 $
b1010000000000000 A
b1010000000000000 :
0B
b00000000000000011010000000000000 $
b1111111111110100 E
b1111111111110100 ;
#130000
0"
04
b0000000101000000 !
b0000000101000000 2
#135000
1"
14
b01010 F
b01010 7
b0000000000000000 8
0@
b00000000000000001010000000000000 $
b1101000000000000 A
b1101000000000000 :
0B
b00000000000000001101000000000000 $
b1111111111110011 E
b1111111111110011 ;
#140000
0"
04
b0000000010001100 !
b0000000010001100 2
#145000
1"
14
b01001 F
b01001 7
b0110100000000000 A
b0110100000000000 :
0B
b00000000000000000110100000000000 $
#150000
0"
04
b0000010010110000 !
b0000010010110000 2
#155000
1"
14
b01000 F
b01000 7
b0011010000000000 A
b0011010000000000 :
0B
b00000000000000000011010000000000 $
#160000
0"
04
b0000000010001100 !
b0000000010001100 2
#165000
1"
14
b00111 F
b00111 7
b0001101000000000 A
b0001101000000000 :
0B
b00000000000000000001101000000000 $
#170000
0"
04
b0000001110011000 !
b0000001110011000 2
#175000
1"
14
b00110 F
b00110 7
b0000110100000000 A
b0000110100000000 :
0B
b00000000000000000000110100000000 $
#180000
0"
04
b0000000011100110 !
b0000000011100110 2
#185000
1"
14
b00101 F
b00101 7
b0000011010000000 A
b0000011010000000 :
0B
b00000000000000000000011010000000 $
#190000
0"
04
b0000001011010000 !
b0000001011010000 2
#195000
1"
14
b00100 F
b00100 7
b0000001101000000 A
b0000001101000000 :
0B
b00000000000000000000001101000000 $
#200000
0"
04
b0111010100110111 !
b0111010100110111 2
#205000
1"
14
b00011 F
b00011 7
b0000000110100000 A
b0000000110100000 :
0B
b00000000000000000000000110100000 $
#210000
0"
04
#215000
1"
14
b00010 F
b00010 7
b0000000011010000 A
b0000000011010000 :
0B
b00000000000000000000000011010000 $
#220000
0"
04
#225000
1"
14
b00001 F
b00001 7
b0000000001101000 A
b0000000001101000 :
0B
b00000000000000000000000001101000 $
#230000
0"
04
#235000
1"
14
b00000 F
b00000 7
16
b0000000000110100 A
b0000000000110100 :
0B
b00000000000000000000000000110100 $
#236000
b110 G
00
1,
0+
0(
